[gd_scene load_steps=5 format=2]

[ext_resource path="res://scenes/Tile Sets/TilesForest.tres" type="TileSet" id=1]
[ext_resource path="res://scenes/Tile Sets/Objects.tres" type="TileSet" id=2]
[ext_resource path="res://scenes/Levels/control_map.gd" type="Script" id=3]

[sub_resource type="RectangleShape2D" id=1]
extents = Vector2( 30.7314, 6.54945 )

[node name="maps" type="Node2D"]
script = ExtResource( 3 )

[node name="TileMaps" type="Node2D" parent="."]

[node name="Tiles" type="TileMap" parent="TileMaps"]
tile_set = ExtResource( 1 )
cell_size = Vector2( 16, 16 )
format = 1

[node name="Nodes" type="TileMap" parent="TileMaps"]
tile_set = ExtResource( 2 )
cell_size = Vector2( 32, 16 )
cell_y_sort = true
format = 1

[node name="Enemies" type="Node2D" parent="."]

[node name="start_position" type="Position2D" parent="."]

[node name="next_scene" type="Area2D" parent="."]

[node name="collision" type="CollisionShape2D" parent="next_scene"]
shape = SubResource( 1 )
[connection signal="body_entered" from="next_scene" to="." method="_on_next_scene_body_entered"]
