; Engine configuration file.
; It's best edited using the editor UI and not directly,
; since the parameters that go here are not all obvious.
;
; Format:
;   [section] ; section goes between []
;   param=value ; assign values to parameters

config_version=4

_global_script_classes=[  ]
_global_script_class_icons={

}

[application]

config/name="Robin RPG | Godot Asset"
run/main_scene="res://Game.tscn"
config/icon="res://assets/environment/tileset.png"

[autoload]

global_var="*res://scripts/autoload/global_var.gd"

[rendering]

quality/driver/driver_name="GLES2"
quality/2d/use_pixel_snap=true
vram_compression/import_etc=true
vram_compression/import_etc2=false
environment/default_environment="res://default_env.tres"
