[gd_resource type="TileSet" load_steps=7 format=2]

[ext_resource path="res://assets/environment/tileset.png" type="Texture" id=1]

[sub_resource type="ConvexPolygonShape2D" id=1]
points = PoolVector2Array( 0, 0, 16, 0, 16, 48, 0, 48 )

[sub_resource type="ConvexPolygonShape2D" id=2]
points = PoolVector2Array( 0, 0, 48, 0, 48, 48, 0, 48 )

[sub_resource type="ConvexPolygonShape2D" id=3]
points = PoolVector2Array( 0, 0, 16, 0, 16, 48, 0, 48 )

[sub_resource type="ConvexPolygonShape2D" id=4]
points = PoolVector2Array( 0, 0, 16, 0, 16, 48, 0, 48 )

[sub_resource type="ConvexPolygonShape2D" id=5]
points = PoolVector2Array( 0, 0, 16, 0, 16, 48, 0, 48 )

[resource]
1/name = "tileset.png 1"
1/texture = ExtResource( 1 )
1/tex_offset = Vector2( 0, 0 )
1/modulate = Color( 1, 1, 1, 1 )
1/region = Rect2( 96, 16, 16, 48 )
1/tile_mode = 0
1/occluder_offset = Vector2( 0, 0 )
1/navigation_offset = Vector2( 0, 0 )
1/shapes = [ {
"autotile_coord": Vector2( 0, 0 ),
"one_way": false,
"one_way_margin": 1.0,
"shape": SubResource( 1 ),
"shape_transform": Transform2D( 1, 0, 0, 1, 0, 0 )
} ]
1/z_index = 0
2/name = "tileset.png 2"
2/texture = ExtResource( 1 )
2/tex_offset = Vector2( 0, 0 )
2/modulate = Color( 1, 1, 1, 1 )
2/region = Rect2( 128, 16, 16, 48 )
2/tile_mode = 0
2/occluder_offset = Vector2( 0, 0 )
2/navigation_offset = Vector2( 0, 0 )
2/shapes = [ {
"autotile_coord": Vector2( 0, 0 ),
"one_way": false,
"one_way_margin": 1.0,
"shape": SubResource( 3 ),
"shape_transform": Transform2D( 1, 0, 0, 1, 0, 0 )
} ]
2/z_index = 0
3/name = "tileset.png 3"
3/texture = ExtResource( 1 )
3/tex_offset = Vector2( 0, 0 )
3/modulate = Color( 1, 1, 1, 1 )
3/region = Rect2( 160, 16, 16, 48 )
3/tile_mode = 0
3/occluder_offset = Vector2( 0, 0 )
3/navigation_offset = Vector2( 0, 0 )
3/shapes = [ {
"autotile_coord": Vector2( 0, 0 ),
"one_way": false,
"one_way_margin": 1.0,
"shape": SubResource( 4 ),
"shape_transform": Transform2D( 1, 0, 0, 1, 0, 0 )
} ]
3/z_index = 0
4/name = "tileset.png 4"
4/texture = ExtResource( 1 )
4/tex_offset = Vector2( 0, 0 )
4/modulate = Color( 1, 1, 1, 1 )
4/region = Rect2( 192, 16, 16, 48 )
4/tile_mode = 0
4/occluder_offset = Vector2( 0, 0 )
4/navigation_offset = Vector2( 0, 0 )
4/shapes = [ {
"autotile_coord": Vector2( 0, 0 ),
"one_way": false,
"one_way_margin": 1.0,
"shape": SubResource( 5 ),
"shape_transform": Transform2D( 1, 0, 0, 1, 0, 0 )
} ]
4/z_index = 0
8/name = "tileset.png 8"
8/texture = ExtResource( 1 )
8/tex_offset = Vector2( 0, 0 )
8/modulate = Color( 1, 1, 1, 1 )
8/region = Rect2( 96, 80, 48, 48 )
8/tile_mode = 0
8/occluder_offset = Vector2( 0, 0 )
8/navigation_offset = Vector2( 0, 0 )
8/shapes = [  ]
8/z_index = 0
9/name = "tileset.png 9"
9/texture = ExtResource( 1 )
9/tex_offset = Vector2( 0, 0 )
9/modulate = Color( 1, 1, 1, 1 )
9/region = Rect2( 160, 80, 48, 48 )
9/tile_mode = 0
9/occluder_offset = Vector2( 0, 0 )
9/navigation_offset = Vector2( 0, 0 )
9/shapes = [  ]
9/z_index = 0
10/name = "tileset.png 10"
10/texture = ExtResource( 1 )
10/tex_offset = Vector2( 0, 0 )
10/modulate = Color( 1, 1, 1, 1 )
10/region = Rect2( 96, 144, 48, 48 )
10/tile_mode = 0
10/occluder_offset = Vector2( 0, 0 )
10/navigation_offset = Vector2( 0, 0 )
10/shapes = [  ]
10/z_index = 0
11/name = "tileset.png 11"
11/texture = ExtResource( 1 )
11/tex_offset = Vector2( 0, 0 )
11/modulate = Color( 1, 1, 1, 1 )
11/region = Rect2( 208, 464, 48, 32 )
11/tile_mode = 0
11/occluder_offset = Vector2( 0, 0 )
11/navigation_offset = Vector2( 0, 0 )
11/shapes = [  ]
11/z_index = 0
12/name = "tileset.png 12"
12/texture = ExtResource( 1 )
12/tex_offset = Vector2( 0, 0 )
12/modulate = Color( 1, 1, 1, 1 )
12/region = Rect2( 352, 288, 64, 32 )
12/tile_mode = 0
12/occluder_offset = Vector2( 0, 0 )
12/navigation_offset = Vector2( 0, 0 )
12/shapes = [  ]
12/z_index = 0
13/name = "tileset.png 13"
13/texture = ExtResource( 1 )
13/tex_offset = Vector2( 0, 0 )
13/modulate = Color( 1, 1, 1, 1 )
13/region = Rect2( 272, 384, 64, 64 )
13/tile_mode = 0
13/occluder_offset = Vector2( 0, 0 )
13/navigation_offset = Vector2( 0, 0 )
13/shapes = [  ]
13/z_index = 0
14/name = "tileset.png 14"
14/texture = ExtResource( 1 )
14/tex_offset = Vector2( 0, 0 )
14/modulate = Color( 1, 1, 1, 1 )
14/region = Rect2( 352, 384, 64, 64 )
14/tile_mode = 0
14/occluder_offset = Vector2( 0, 0 )
14/navigation_offset = Vector2( 0, 0 )
14/shapes = [  ]
14/z_index = 0
15/name = "tileset.png 15"
15/texture = ExtResource( 1 )
15/tex_offset = Vector2( 0, 0 )
15/modulate = Color( 1, 1, 1, 1 )
15/region = Rect2( 432, 384, 32, 64 )
15/tile_mode = 0
15/occluder_offset = Vector2( 0, 0 )
15/navigation_offset = Vector2( 0, 0 )
15/shapes = [  ]
15/z_index = 0
16/name = "tileset.png 16"
16/texture = ExtResource( 1 )
16/tex_offset = Vector2( 0, 0 )
16/modulate = Color( 1, 1, 1, 1 )
16/region = Rect2( 352, 464, 64, 32 )
16/tile_mode = 0
16/occluder_offset = Vector2( 0, 0 )
16/navigation_offset = Vector2( 0, 0 )
16/shapes = [  ]
16/z_index = 0
17/name = "tileset.png 17"
17/texture = ExtResource( 1 )
17/tex_offset = Vector2( 0, 0 )
17/modulate = Color( 1, 1, 1, 1 )
17/region = Rect2( 352, 336, 64, 32 )
17/tile_mode = 0
17/occluder_offset = Vector2( 0, 0 )
17/navigation_offset = Vector2( 0, 0 )
17/shapes = [  ]
17/z_index = 0
18/name = "tileset.png 18"
18/texture = ExtResource( 1 )
18/tex_offset = Vector2( 0, 0 )
18/modulate = Color( 1, 1, 1, 1 )
18/region = Rect2( 208, 288, 16, 16 )
18/tile_mode = 0
18/occluder_offset = Vector2( 0, 0 )
18/navigation_offset = Vector2( 0, 0 )
18/shapes = [  ]
18/z_index = 0
19/name = "tileset.png 19"
19/texture = ExtResource( 1 )
19/tex_offset = Vector2( 0, 0 )
19/modulate = Color( 1, 1, 1, 1 )
19/region = Rect2( 224, 16, 48, 48 )
19/tile_mode = 0
19/occluder_offset = Vector2( 0, 0 )
19/navigation_offset = Vector2( 0, 0 )
19/shapes = [ {
"autotile_coord": Vector2( 0, 0 ),
"one_way": false,
"one_way_margin": 1.0,
"shape": SubResource( 2 ),
"shape_transform": Transform2D( 1, 0, 0, 1, 0, 0 )
} ]
19/z_index = 0
20/name = "tileset.png 20"
20/texture = ExtResource( 1 )
20/tex_offset = Vector2( 0, 0 )
20/modulate = Color( 1, 1, 1, 1 )
20/region = Rect2( 304, 16, 32, 32 )
20/tile_mode = 0
20/occluder_offset = Vector2( 0, 0 )
20/navigation_offset = Vector2( 0, 0 )
20/shapes = [  ]
20/z_index = 0
21/name = "tileset.png 21"
21/texture = ExtResource( 1 )
21/tex_offset = Vector2( 0, 0 )
21/modulate = Color( 1, 1, 1, 1 )
21/region = Rect2( 352, 16, 16, 32 )
21/tile_mode = 0
21/occluder_offset = Vector2( 0, 0 )
21/navigation_offset = Vector2( 0, 0 )
21/shapes = [  ]
21/z_index = 0
22/name = "tileset.png 22"
22/texture = ExtResource( 1 )
22/tex_offset = Vector2( 0, 0 )
22/modulate = Color( 1, 1, 1, 1 )
22/region = Rect2( 384, 16, 16, 32 )
22/tile_mode = 0
22/occluder_offset = Vector2( 0, 0 )
22/navigation_offset = Vector2( 0, 0 )
22/shapes = [  ]
22/z_index = 0
23/name = "tileset.png 23"
23/texture = ExtResource( 1 )
23/tex_offset = Vector2( 0, 0 )
23/modulate = Color( 1, 1, 1, 1 )
23/region = Rect2( 416, 16, 32, 32 )
23/tile_mode = 0
23/occluder_offset = Vector2( 0, 0 )
23/navigation_offset = Vector2( 0, 0 )
23/shapes = [  ]
23/z_index = 0
24/name = "tileset.png 24"
24/texture = ExtResource( 1 )
24/tex_offset = Vector2( 0, 0 )
24/modulate = Color( 1, 1, 1, 1 )
24/region = Rect2( 384, 80, 16, 16 )
24/tile_mode = 0
24/occluder_offset = Vector2( 0, 0 )
24/navigation_offset = Vector2( 0, 0 )
24/shapes = [  ]
24/z_index = 0
25/name = "tileset.png 25"
25/texture = ExtResource( 1 )
25/tex_offset = Vector2( 0, 0 )
25/modulate = Color( 1, 1, 1, 1 )
25/region = Rect2( 352, 64, 32, 32 )
25/tile_mode = 0
25/occluder_offset = Vector2( 0, 0 )
25/navigation_offset = Vector2( 0, 0 )
25/shapes = [  ]
25/z_index = 0
26/name = "tileset.png 26"
26/texture = ExtResource( 1 )
26/tex_offset = Vector2( 0, 0 )
26/modulate = Color( 1, 1, 1, 1 )
26/region = Rect2( 384, 112, 16, 16 )
26/tile_mode = 0
26/occluder_offset = Vector2( 0, 0 )
26/navigation_offset = Vector2( 0, 0 )
26/shapes = [  ]
26/z_index = 0
27/name = "tileset.png 27"
27/texture = ExtResource( 1 )
27/tex_offset = Vector2( 0, 0 )
27/modulate = Color( 1, 1, 1, 1 )
27/region = Rect2( 352, 112, 16, 16 )
27/tile_mode = 0
27/occluder_offset = Vector2( 0, 0 )
27/navigation_offset = Vector2( 0, 0 )
27/shapes = [  ]
27/z_index = 0
